…
``` r
trees <- vancouver_trees

trees %>% group_by(genus_name, species_name, root_barrier) %>% 
  summarise(n=n()) %>% 
  mutate(freq = n/sum(n)) %>% 
   arrange(desc(n))
```

    ## `summarise()` has grouped output by 'genus_name', 'species_name'. You can
    ## override using the `.groups` argument.

    ## # A tibble: 476 × 5
    ## # Groups:   genus_name, species_name [361]
    ##    genus_name species_name root_barrier     n  freq
    ##    <chr>      <chr>        <chr>        <int> <dbl>
    ##  1 PRUNUS     SERRULATA    N            13200 0.988
    ##  2 PRUNUS     CERASIFERA   N            11689 0.972
    ##  3 ACER       PLATANOIDES  N            11051 0.924
    ##  4 ACER       RUBRUM       N             7694 0.909
    ##  5 CARPINUS   BETULUS      N             4617 0.889
    ##  6 TILIA      EUCHLORA   X N             4426 1.00 
    ##  7 FAGUS      SYLVATICA    N             4242 0.904
    ##  8 ACER       FREEMANI   X N             3422 0.822
    ##  9 ACER       CAMPESTRE    N             3366 0.968
    ## 10 MAGNOLIA   KOBUS        N             2638 0.980
    ## # ℹ 466 more rows
…
*Summarizing*

I can compute the number of observations for each genera using the
*summarise* function.

``` r
trees %>% group_by(genus_name) %>% 
  summarise(count=n()) %>% 
  arrange(desc(count))
```

    ## # A tibble: 97 × 2
    ##    genus_name count
    ##    <chr>      <int>
    ##  1 ACER       36062
    ##  2 PRUNUS     30683
    ##  3 FRAXINUS    7381
    ##  4 TILIA       6773
    ##  5 QUERCUS     6119
    ##  6 CARPINUS    5806
    ##  7 FAGUS       4808
    ##  8 MALUS       4173
    ##  9 MAGNOLIA    3899
    ## 10 CRATAEGUS   3864
    ## # ℹ 87 more rows
…
``` r
trees %>% mutate(period = case_when(date_planted < '2010-01-01' ~"Pre-plan", TRUE ~ "Post-plan")) %>% 
  na.omit(date_planted) %>% 
  group_by(genus_name, period) %>% 
  summarise(count=n()) %>% 
  arrange(genus_name)
```

    ## `summarise()` has grouped output by 'genus_name'. You can override using the
    ## `.groups` argument.

    ## # A tibble: 68 × 3
    ## # Groups:   genus_name [41]
    ##    genus_name  period    count
    ##    <chr>       <chr>     <int>
    ##  1 ACER        Post-plan  3643
    ##  2 ACER        Pre-plan  10541
    ##  3 AESCULUS    Post-plan    44
    ##  4 AESCULUS    Pre-plan    100
    ##  5 AMELANCHIER Post-plan    75
    ##  6 BETULA      Pre-plan      3
    ##  7 CARPINUS    Post-plan   472
    ##  8 CARPINUS    Pre-plan   2009
    ##  9 CATALPA     Post-plan     4
    ## 10 CATALPA     Pre-plan      7
    ## # ℹ 58 more rows
…
    ## Warning: Returning more (or less) than 1 row per `summarise()` group was deprecated in
    ## dplyr 1.1.0.
    ## ℹ Please use `reframe()` instead.
    ## ℹ When switching from `summarise()` to `reframe()`, remember that `reframe()`
    ##   always returns an ungrouped data frame and adjust accordingly.
    ## Call `lifecycle::last_lifecycle_warnings()` to see where this warning was
    ## generated.

    ## `summarise()` has grouped output by 'genus_name', 'species_name'. You can
    ## override using the `.groups` argument.

    ## # A tibble: 722 × 8
    ## # Groups:   genus_name, species_name [361]
    ##    genus_name species_name  mean   min   max range median    sd
    ##    <chr>      <chr>        <dbl> <dbl> <dbl> <dbl>  <dbl> <dbl>
    ##  1 STYRAX     JAPONICA      4.10     0   435     0    3    11.1
    ##  2 STYRAX     JAPONICA      4.10     0   435   435    3    11.1
    ##  3 ACER       SPECIES      11.8      2   317     2    8.5  20.8
    ##  4 ACER       SPECIES      11.8      2   317   317    8.5  20.8
    ##  5 QUERCUS    PHELLOS       8.79     0   305     0    7    17.1
    ##  6 QUERCUS    PHELLOS       8.79     0   305   305    7    17.1
    ##  7 ACER       SACCHARINUM  27.5      5   182     5   26    13.1
    ##  8 ACER       SACCHARINUM  27.5      5   182   182   26    13.1
    ##  9 ACER       PLATANOIDES  14.1      0   161     0   12    10.1
    ## 10 ACER       PLATANOIDES  14.1      0   161   161   12    10.1
    ## # ℹ 712 more rows
…
``` r
trees %>% mutate(type = case_when(
  genus_name %in% c('ABIES', 'PINUS','THUJA', 'PICEA', 'PSEUDOTSUGA', 'SEQUOIADENDRON', 'CEDRUS', 'TSUGA', 'METASEQUOIA', 'ARAUCARIA', 'CRYPTOMERIA', 'CALOCEDRUS', 'TAXODIUM', 'TAXUS', 'JUNIPERUS', 'SEQUOIA', 'SCIADOPITYS', 'CUPRESSOCYPARIS X') ~'Coniferous',
     TRUE ~ 'Deciduous')) %>% 
  arrange(type)
```

    ## # A tibble: 146,611 × 21
    ##    tree_id civic_number std_street        genus_name  species_name cultivar_name
    ##      <dbl>        <dbl> <chr>             <chr>       <chr>        <chr>        
    ##  1  156253         4626 DUNBAR ST         THUJA       PLICATA      <NA>         
    ##  2  156732         2703 WARD ST           THUJA       PLICATA      <NA>         
    ##  3  157412          430 DUNLEVY AV        PINUS       SYLVESTRIS   <NA>         
    ##  4  157413          430 DUNLEVY AV        PINUS       SYLVESTRIS   <NA>         
    ##  5  157429         4895 ST. CATHERINES ST ABIES       SPECIES      <NA>         
    ##  6  158713         2743 W 1ST AV          PICEA       PUNGENS      <NA>         
    ##  7  158944         3639 OSLER ST          THUJA       PLICATA      <NA>         
    ##  8  159366         2491 PANDORA ST        PSEUDOTSUGA MENZIESII    <NA>         
    ##  9  160098          276 W 63RD AV         THUJA       PLICATA      <NA>         
    ## 10  160131         1100 CHARLESON         PINUS       SPECIES      <NA>         
    ## # ℹ 146,601 more rows
    ## # ℹ 15 more variables: common_name <chr>, assigned <chr>, root_barrier <chr>,
    ## #   plant_area <chr>, on_street_block <dbl>, on_street <chr>,
    ## #   neighbourhood_name <chr>, street_side_name <chr>, height_range_id <dbl>,
    ## #   diameter <dbl>, curb <chr>, date_planted <date>, longitude <dbl>,
    ## #   latitude <dbl>, type <chr>
…
**Tidy Data**

The vancouver_trees dataset has 20 variables. I will choose the
following eight variables and determine whether the data is tidy or
untidy:

tree_id, civic_number, genus_name, species_name, cultivar_name,
plant_area, on_street, neighbourhood_name

``` r
trees %>% select(tree_id, civic_number, genus_name, species_name, cultivar_name, plant_area, on_street, neighbourhood_name)
```

    ## # A tibble: 146,611 × 8
    ##    tree_id civic_number genus_name species_name cultivar_name   plant_area
    ##      <dbl>        <dbl> <chr>      <chr>        <chr>           <chr>     
    ##  1  149556          494 ULMUS      AMERICANA    BRANDON         N         
    ##  2  149563          450 ZELKOVA    SERRATA      <NA>            N         
    ##  3  149579         4994 STYRAX     JAPONICA     <NA>            4         
    ##  4  149590          858 FRAXINUS   AMERICANA    AUTUMN APPLAUSE 4         
    ##  5  149604         5032 ACER       CAMPESTRE    <NA>            4         
    ##  6  149616          585 PYRUS      CALLERYANA   CHANTICLEER     B         
    ##  7  149617         4909 ACER       PLATANOIDES  COLUMNARE       6         
    ##  8  149618         4925 ACER       PLATANOIDES  COLUMNARE       6         
    ##  9  149619         4969 ACER       PLATANOIDES  COLUMNARE       3         
    ## 10  149625          720 FRAXINUS   AMERICANA    AUTUMN APPLAUSE 3         
    ## # ℹ 146,601 more rows
    ## # ℹ 2 more variables: on_street <chr>, neighbourhood_name <chr>
…
I will untidy the data further by using the *pivot_wider* function to
create new columns with the name coming from the neighbourhood_name
variable and the values from the on_street variable.

``` r
trees %>% select(tree_id, civic_number, genus_name, species_name, cultivar_name, plant_area, on_street, neighbourhood_name) %>% 
  unite("scientific_name", genus_name:species_name) %>% 
  pivot_wider(names_from = "neighbourhood_name", values_from = "on_street")
```

    ## # A tibble: 146,611 × 27
    ##    tree_id civic_number scientific_name    cultivar_name   plant_area MARPOLE  
    ##      <dbl>        <dbl> <chr>              <chr>           <chr>      <chr>    
    ##  1  149556          494 ULMUS_AMERICANA    BRANDON         N          W 58TH AV
    ##  2  149563          450 ZELKOVA_SERRATA    <NA>            N          W 58TH AV
    ##  3  149579         4994 STYRAX_JAPONICA    <NA>            4          <NA>     
    ##  4  149590          858 FRAXINUS_AMERICANA AUTUMN APPLAUSE 4          <NA>     
    ##  5  149604         5032 ACER_CAMPESTRE     <NA>            4          <NA>     
    ##  6  149616          585 PYRUS_CALLERYANA   CHANTICLEER     B          W 61ST AV
    ##  7  149617         4909 ACER_PLATANOIDES   COLUMNARE       6          <NA>     
    ##  8  149618         4925 ACER_PLATANOIDES   COLUMNARE       6          <NA>     
    ##  9  149619         4969 ACER_PLATANOIDES   COLUMNARE       3          <NA>     
    ## 10  149625          720 FRAXINUS_AMERICANA AUTUMN APPLAUSE 3          <NA>     
    ## # ℹ 146,601 more rows
    ## # ℹ 21 more variables: `KENSINGTON-CEDAR COTTAGE` <chr>, OAKRIDGE <chr>,
    ## #   `MOUNT PLEASANT` <chr>, `RENFREW-COLLINGWOOD` <chr>, `RILEY PARK` <chr>,
    ## #   DOWNTOWN <chr>, SUNSET <chr>, `ARBUTUS-RIDGE` <chr>,
    ## #   `GRANDVIEW-WOODLAND` <chr>, KITSILANO <chr>, `WEST END` <chr>,
    ## #   SHAUGHNESSY <chr>, `HASTINGS-SUNRISE` <chr>, KERRISDALE <chr>,
    ## #   `WEST POINT GREY` <chr>, KILLARNEY <chr>, STRATHCONA <chr>, …
…
``` r
trees %>% select(tree_id, civic_number, genus_name, species_name, cultivar_name, plant_area, on_street, neighbourhood_name) %>% 
  unite("scientific_name", genus_name:species_name) %>% 
  pivot_wider(names_from = "neighbourhood_name", values_from = "on_street") %>% separate(scientific_name, c("genus_name","species_name")) %>% 
  pivot_longer(!tree_id:plant_area, names_to = "neighbourhood_name", values_to = "on_street")
```

    ## Warning: Expected 2 pieces. Additional pieces discarded in 15303 rows [11, 12, 48, 55,
    ## 58, 59, 60, 99, 248, 249, 257, 258, 259, 260, 261, 314, 315, 316, 317, 342,
    ## ...].

    ## # A tibble: 3,225,442 × 8
    ##    tree_id civic_number genus_name species_name cultivar_name plant_area
    ##      <dbl>        <dbl> <chr>      <chr>        <chr>         <chr>     
    ##  1  149556          494 ULMUS      AMERICANA    BRANDON       N         
    ##  2  149556          494 ULMUS      AMERICANA    BRANDON       N         
    ##  3  149556          494 ULMUS      AMERICANA    BRANDON       N         
    ##  4  149556          494 ULMUS      AMERICANA    BRANDON       N         
    ##  5  149556          494 ULMUS      AMERICANA    BRANDON       N         
    ##  6  149556          494 ULMUS      AMERICANA    BRANDON       N         
    ##  7  149556          494 ULMUS      AMERICANA    BRANDON       N         
    ##  8  149556          494 ULMUS      AMERICANA    BRANDON       N         
    ##  9  149556          494 ULMUS      AMERICANA    BRANDON       N         
    ## 10  149556          494 ULMUS      AMERICANA    BRANDON       N         
    ## # ℹ 3,225,432 more rows
    ## # ℹ 2 more variables: neighbourhood_name <chr>, on_street <chr>
…
*Where are the 10 largest trees located in Vancouver, and what is the
relationship between the median and max tree diameter in each
neighbourhood?*

``` r
trees %>% group_by(neighbourhood_name, genus_name, species_name) %>% 
  summarise(max=max(diameter), median = median(diameter)) %>% 
  arrange(desc(max)) %>% 
  filter(max<300)
```

    ## `summarise()` has grouped output by 'neighbourhood_name', 'genus_name'. You can
    ## override using the `.groups` argument.

    ## # A tibble: 3,710 × 5
    ## # Groups:   neighbourhood_name, genus_name [1,303]
    ##    neighbourhood_name       genus_name     species_name   max median
    ##    <chr>                    <chr>          <chr>        <dbl>  <dbl>
    ##  1 MARPOLE                  ACER           SACCHARINUM    182   22.8
    ##  2 MARPOLE                  ACER           PLATANOIDES    161   16.2
    ##  3 KERRISDALE               ACER           PLATANOIDES    156   18  
    ##  4 DOWNTOWN                 ACER           RUBRUM         151    6  
    ##  5 VICTORIA-FRASERVIEW      ULMUS          AMERICANA      144    3  
    ##  6 SOUTH CAMBIE             PRUNUS         SERRULATA      141   17  
    ##  7 VICTORIA-FRASERVIEW      CERCIDIPHYLLUM JAPONICUM      131    3  
    ##  8 FAIRVIEW                 QUERCUS        PALUSTRIS       99   12  
    ##  9 KENSINGTON-CEDAR COTTAGE CHAMAECYPARIS  NOOTKATENSIS    99   15.1
    ## 10 KENSINGTON-CEDAR COTTAGE SORBUS         AUCUPARIA       99    9.5
    ## # ℹ 3,700 more rows
…
